<?xml version="1.0" encoding="utf-8"?>
<!-- Generator: Adobe Illustrator 21.1.0, SVG Export Plug-In . SVG Version: 6.00 Build 0)  -->
<svg version="1.1" id="Camada_1" xmlns="http://www.w3.org/2000/svg" xmlns:xlink="http://www.w3.org/1999/xlink" x="0px" y="0px"
	 viewBox="0 0 330 330" style="enable-background:new 0 0 330 330;" xml:space="preserve">
<style type="text/css">
	.st0{fill:#F5F5F5;}
	.st1{fill:none;stroke:#29B6F6;stroke-width:8;stroke-miterlimit:10;}
	.st2{fill:none;stroke:#29B6F6;stroke-width:15;stroke-linecap:round;stroke-linejoin:round;stroke-miterlimit:10;}
	.st3{fill:none;stroke:#D13939;stroke-width:15;stroke-linecap:round;stroke-linejoin:round;stroke-miterlimit:10;}
</style>
<circle class="st0" cx="165" cy="196.3" r="133.7"/>
<circle class="st1" cx="165" cy="165" r="162.1"/>
<path class="st2" d="M165,327.1"/>
<path class="st3" d="M1279.5,670.4"/>
<g>
	<path class="st2" d="M165,165"/>
	<rect x="66.7" y="98.1" class="st2" width="196.7" height="133.9"/>
	<polyline class="st2" points="66.7,98.1 165,181.5 263.3,98.1 	"/>
	<line class="st2" x1="263.3" y1="231.9" x2="208.1" y2="186.1"/>
	<polyline class="st2" points="121.9,186.1 121.9,186.1 66.7,231.9 	"/>
</g>
</svg>
